A template for {ggmemory}
…
---
count: false

.panel1-2354-auto[

```r
nurses
```
]
 
.panel2-2354-auto[

```
# A tibble: 1,242 x 22
   State          Year `Total Employed … `Employed Standard Er… `Hourly Wage Av…
   <chr>         <dbl>             <dbl>                  <dbl>            <dbl>
 1 Alabama        2020             48850                    2.9             29.0
 2 Alaska         2020              6240                   13               45.8
 3 Arizona        2020             55520                    3.7             38.6
 4 Arkansas       2020             25300                    4.2             30.6
 5 California     2020            307060                    2               58.0
 6 Colorado       2020             52330                    2.8             37.4
 7 Connecticut    2020             33400                    6.5             40.8
 8 Delaware       2020             11410                   11.4             35.7
 9 District of …  2020             10320                    1.2             43.3
10 Florida        2020            183130                    2.2             33.4
# … with 1,232 more rows, and 17 more variables: Hourly Wage Median <dbl>,
#   Annual Salary Avg <dbl>, Annual Salary Median <dbl>,
#   Wage/Salary standard error (%) <dbl>, Hourly 10th Percentile <dbl>,
#   Hourly 25th Percentile <dbl>, Hourly 75th Percentile <dbl>,
#   Hourly 90th Percentile <dbl>, Annual 10th Percentile <dbl>,
#   Annual 25th Percentile <dbl>, Annual 75th Percentile <dbl>,
#   Annual 90th Percentile <dbl>, Location Quotient <dbl>,
#   Total Employed (National)_Aggregate <dbl>,
#   Total Employed (Healthcare, National)_Aggregate <dbl>,
…
---
count: false

.panel1-2354-auto[

```r
nurses_raw
```
]
 
.panel2-2354-auto[

```
# A tibble: 1,242 x 22
   State          Year `Total Employed … `Employed Standard Er… `Hourly Wage Av…
   <chr>         <dbl>             <dbl>                  <dbl>            <dbl>
 1 Alabama        2020             48850                    2.9             29.0
 2 Alaska         2020              6240                   13               45.8
 3 Arizona        2020             55520                    3.7             38.6
 4 Arkansas       2020             25300                    4.2             30.6
 5 California     2020            307060                    2               58.0
 6 Colorado       2020             52330                    2.8             37.4
 7 Connecticut    2020             33400                    6.5             40.8
 8 Delaware       2020             11410                   11.4             35.7
 9 District of …  2020             10320                    1.2             43.3
10 Florida        2020            183130                    2.2             33.4
# … with 1,232 more rows, and 17 more variables: Hourly Wage Median <dbl>,
#   Annual Salary Avg <dbl>, Annual Salary Median <dbl>,
#   Wage/Salary standard error (%) <dbl>, Hourly 10th Percentile <dbl>,
#   Hourly 25th Percentile <dbl>, Hourly 75th Percentile <dbl>,
#   Hourly 90th Percentile <dbl>, Annual 10th Percentile <dbl>,
#   Annual 25th Percentile <dbl>, Annual 75th Percentile <dbl>,
#   Annual 90th Percentile <dbl>, Location Quotient <dbl>,
#   Total Employed (National)_Aggregate <dbl>,
#   Total Employed (Healthcare, National)_Aggregate <dbl>,
…
---
count: false

.panel1-2354-auto[

```r
nurses_raw %>%
  janitor::clean_names()
```
]
 
.panel2-2354-auto[

```
# A tibble: 1,242 x 22
   state          year total_employed_rn employed_standard_erro… hourly_wage_avg
   <chr>         <dbl>             <dbl>                   <dbl>           <dbl>
 1 Alabama        2020             48850                     2.9            29.0
 2 Alaska         2020              6240                    13              45.8
 3 Arizona        2020             55520                     3.7            38.6
 4 Arkansas       2020             25300                     4.2            30.6
 5 California     2020            307060                     2              58.0
 6 Colorado       2020             52330                     2.8            37.4
 7 Connecticut    2020             33400                     6.5            40.8
 8 Delaware       2020             11410                    11.4            35.7
 9 District of …  2020             10320                     1.2            43.3
10 Florida        2020            183130                     2.2            33.4
# … with 1,232 more rows, and 17 more variables: hourly_wage_median <dbl>,
#   annual_salary_avg <dbl>, annual_salary_median <dbl>,
#   wage_salary_standard_error_percent <dbl>, hourly_10th_percentile <dbl>,
#   hourly_25th_percentile <dbl>, hourly_75th_percentile <dbl>,
#   hourly_90th_percentile <dbl>, annual_10th_percentile <dbl>,
#   annual_25th_percentile <dbl>, annual_75th_percentile <dbl>,
#   annual_90th_percentile <dbl>, location_quotient <dbl>,
#   total_employed_national_aggregate <dbl>,
#   total_employed_healthcare_national_aggregate <dbl>,
…
---
count: false

.panel1-2354-auto[

```r
nurses
```
]
 
.panel2-2354-auto[

```
# A tibble: 1,242 x 22
   state          year total_employed_rn employed_standard_erro… hourly_wage_avg
   <chr>         <dbl>             <dbl>                   <dbl>           <dbl>
 1 Alabama        2020             48850                     2.9            29.0
 2 Alaska         2020              6240                    13              45.8
 3 Arizona        2020             55520                     3.7            38.6
 4 Arkansas       2020             25300                     4.2            30.6
 5 California     2020            307060                     2              58.0
 6 Colorado       2020             52330                     2.8            37.4
 7 Connecticut    2020             33400                     6.5            40.8
 8 Delaware       2020             11410                    11.4            35.7
 9 District of …  2020             10320                     1.2            43.3
10 Florida        2020            183130                     2.2            33.4
# … with 1,232 more rows, and 17 more variables: hourly_wage_median <dbl>,
#   annual_salary_avg <dbl>, annual_salary_median <dbl>,
#   wage_salary_standard_error_percent <dbl>, hourly_10th_percentile <dbl>,
#   hourly_25th_percentile <dbl>, hourly_75th_percentile <dbl>,
#   hourly_90th_percentile <dbl>, annual_10th_percentile <dbl>,
#   annual_25th_percentile <dbl>, annual_75th_percentile <dbl>,
#   annual_90th_percentile <dbl>, location_quotient <dbl>,
#   total_employed_national_aggregate <dbl>,
#   total_employed_healthcare_national_aggregate <dbl>,
…
.panel1-2354-auto[

```r
nurses %>%
  filter(state != "Guam" &
           state != "Virgin Islands")
```
]
 
.panel2-2354-auto[

```
# A tibble: 1,196 x 22
   state          year total_employed_rn employed_standard_erro… hourly_wage_avg
   <chr>         <dbl>             <dbl>                   <dbl>           <dbl>
 1 Alabama        2020             48850                     2.9            29.0
 2 Alaska         2020              6240                    13              45.8
 3 Arizona        2020             55520                     3.7            38.6
 4 Arkansas       2020             25300                     4.2            30.6
 5 California     2020            307060                     2              58.0
 6 Colorado       2020             52330                     2.8            37.4
 7 Connecticut    2020             33400                     6.5            40.8
 8 Delaware       2020             11410                    11.4            35.7
 9 District of …  2020             10320                     1.2            43.3
10 Florida        2020            183130                     2.2            33.4
# … with 1,186 more rows, and 17 more variables: hourly_wage_median <dbl>,
#   annual_salary_avg <dbl>, annual_salary_median <dbl>,
#   wage_salary_standard_error_percent <dbl>, hourly_10th_percentile <dbl>,
#   hourly_25th_percentile <dbl>, hourly_75th_percentile <dbl>,
#   hourly_90th_percentile <dbl>, annual_10th_percentile <dbl>,
#   annual_25th_percentile <dbl>, annual_75th_percentile <dbl>,
#   annual_90th_percentile <dbl>, location_quotient <dbl>,
#   total_employed_national_aggregate <dbl>,
#   total_employed_healthcare_national_aggregate <dbl>,
…
.panel1-2354-auto[

```r
nurses %>%
  filter(state != "Guam" &
           state != "Virgin Islands") %>%
  filter(year %in% range(year))
```
]
 
.panel2-2354-auto[

```
# A tibble: 104 x 22
   state          year total_employed_rn employed_standard_erro… hourly_wage_avg
   <chr>         <dbl>             <dbl>                   <dbl>           <dbl>
 1 Alabama        2020             48850                     2.9            29.0
 2 Alaska         2020              6240                    13              45.8
 3 Arizona        2020             55520                     3.7            38.6
 4 Arkansas       2020             25300                     4.2            30.6
 5 California     2020            307060                     2              58.0
 6 Colorado       2020             52330                     2.8            37.4
 7 Connecticut    2020             33400                     6.5            40.8
 8 Delaware       2020             11410                    11.4            35.7
 9 District of …  2020             10320                     1.2            43.3
10 Florida        2020            183130                     2.2            33.4
# … with 94 more rows, and 17 more variables: hourly_wage_median <dbl>,
#   annual_salary_avg <dbl>, annual_salary_median <dbl>,
#   wage_salary_standard_error_percent <dbl>, hourly_10th_percentile <dbl>,
#   hourly_25th_percentile <dbl>, hourly_75th_percentile <dbl>,
#   hourly_90th_percentile <dbl>, annual_10th_percentile <dbl>,
#   annual_25th_percentile <dbl>, annual_75th_percentile <dbl>,
#   annual_90th_percentile <dbl>, location_quotient <dbl>,
#   total_employed_national_aggregate <dbl>,
#   total_employed_healthcare_national_aggregate <dbl>,
…
.panel1-2354-auto[

```r
nurses %>%
  filter(state != "Guam" &
           state != "Virgin Islands") %>%
  filter(year %in% range(year)) %>%
  select(state, year, hourly_wage_median)
```
]
 
.panel2-2354-auto[

```
# A tibble: 104 x 3
   state                 year hourly_wage_median
   <chr>                <dbl>              <dbl>
 1 Alabama               2020               28.2
 2 Alaska                2020               45.2
 3 Arizona               2020               38.0
 4 Arkansas              2020               30.0
 5 California            2020               56.9
 6 Colorado              2020               36.8
 7 Connecticut           2020               39.8
 8 Delaware              2020               34.7
 9 District of Columbia  2020               43  
10 Florida               2020               32.5
# … with 94 more rows
```
…
```r
nurses %>%
  filter(state != "Guam" &
           state != "Virgin Islands") %>%
  filter(year %in% range(year)) %>%
  select(state, year, hourly_wage_median) %>%
  pivot_wider(names_from = year, values_from = hourly_wage_median)
```
]
 
.panel2-2354-auto[

```
# A tibble: 52 x 3
   state                `2020` `1998`
   <chr>                 <dbl>  <dbl>
 1 Alabama                28.2   17.6
 2 Alaska                 45.2   22.4
 3 Arizona                38.0   19.4
 4 Arkansas               30.0   16.7
 5 California             56.9   24.0
 6 Colorado               36.8   19.8
 7 Connecticut            39.8   22.3
 8 Delaware               34.7   19.7
 9 District of Columbia   43     22.8
10 Florida                32.5   18.9
# … with 42 more rows
```
…
```r
nurses %>%
  filter(state != "Guam" &
           state != "Virgin Islands" &
           state != "Puerto Rico") %>%
  filter(year %in% range(year)) %>%
  select(state, year, hourly_wage_median) %>%
  pivot_wider(names_from = year, values_from = hourly_wage_median)
```
]
 
.panel2-2354-auto[

```
# A tibble: 51 x 3
   state                `2020` `1998`
   <chr>                 <dbl>  <dbl>
 1 Alabama                28.2   17.6
 2 Alaska                 45.2   22.4
 3 Arizona                38.0   19.4
 4 Arkansas               30.0   16.7
 5 California             56.9   24.0
 6 Colorado               36.8   19.8
 7 Connecticut            39.8   22.3
 8 Delaware               34.7   19.7
 9 District of Columbia   43     22.8
10 Florida                32.5   18.9
# … with 41 more rows
```
…
